sim/tinyriscv_core_tb.vcd
$date
	Sun Feb 23 17:00:47 2020
$end
$version
	Icarus Verilog
$end
$timescale
	1ps
$end
$scope module tinyriscv_core_tb $end
$var wire 32 ! x26 [31:0] $end
$var wire 32 " x27 [31:0] $end
$var wire 32 # x3 [31:0] $end
$var reg 1 $ clk $end
$var reg 1 % rst $end
$var integer 32 & r [31:0] $end
$scope module u_tinyriscv_core $end
$var wire 1 $ clk $end
$var wire 1 % rst $end
$var wire 32 ' regs_rdata2_o [31:0] $end
$var wire 32 ( regs_rdata1_o [31:0] $end
$var wire 32 ) ram_pc_rdata_o [31:0] $end
$var wire 32 * ram_ex_rdata_o [31:0] $end
$var wire 1 + pc_re_o $end
$var wire 32 , pc_pc_o [31:0] $end
$var wire 32 - if_inst_o [31:0] $end
$var wire 32 . if_inst_addr_o [31:0] $end
$var wire 1 / id_sram_we_o $end
$var wire 1 0 id_sram_re_o $end
$var wire 1 1 id_reg_we_o $end
$var wire 5 2 id_reg_waddr_o [4:0] $end
$var wire 1 3 id_reg2_re_o $end
$var wire 5 4 id_reg2_raddr_o [4:0] $end
$var wire 1 5 id_reg1_re_o $end
$var wire 5 6 id_reg1_raddr_o [4:0] $end
$var wire 1 7 id_inst_valid_o $end
$var wire 32 8 id_inst_o [31:0] $end
$var wire 32 9 id_inst_addr_o [31:0] $end
$var wire 32 : ex_sram_wdata_o [31:0] $end
$var wire 32 ; ex_sram_waddr_o [31:0] $end
$var wire 32 < ex_sram_raddr_o [31:0] $end
$var wire 1 = ex_reg_we_o $end
$var wire 32 > ex_reg_wdata_o [31:0] $end
$var wire 5 ? ex_reg_waddr_o [4:0] $end
$var wire 1 @ ex_jump_flag_o $end
$var wire 32 A ex_jump_addr_o [31:0] $end
$var wire 1 B ex_hold_flag_o $end
$var wire 32 C ex_hold_addr_o [31:0] $end
$var wire 1 D ex_div_start_o $end
$var wire 32 E ex_div_divisor_o [31:0] $end
$var wire 32 F ex_div_dividend_o [31:0] $end
$var wire 64 G div_result_o [63:0] $end
$var wire 1 H div_ready_o $end
$scope module u_div $end
$var wire 1 $ clk $end
$var wire 1 % rst $end
$var wire 1 D start_i $end
$var wire 32 I divisor_i [31:0] $end
$var wire 32 J dividend_i [31:0] $end
$var reg 7 K count [6:0] $end
$var reg 32 L div_remain [31:0] $end
$var reg 32 M div_result [31:0] $end
$var reg 32 N dividend_temp [31:0] $end
$var reg 32 O divisor_temp [31:0] $end
$var reg 32 P divisor_zero_result [31:0] $end
$var reg 32 Q minuend [31:0] $end
$var reg 1 H ready_o $end
$var reg 64 R result_o [63:0] $end
$var reg 2 S state [1:0] $end
$upscope $end
$scope module u_ex $end
$var wire 1 $ clk $end
$var wire 1 H div_ready_i $end
$var wire 64 T div_result_i [63:0] $end
$var wire 1 % rst $end
$var wire 2 U sram_waddr_index [1:0] $end
$var wire 32 V sram_rdata_i [31:0] $end
$var wire 2 W sram_raddr_index [1:0] $end
$var wire 32 X sign_extend_tmp [31:0] $end
$var wire 5 Y shift_bits [4:0] $end
$var wire 1 1 reg_we_i $end
$var wire 5 Z reg_waddr_i [4:0] $end
$var wire 32 [ reg2_rdata_i [31:0] $end
$var wire 32 \ reg1_rdata_i [31:0] $end
$var wire 5 ] rd [4:0] $end
$var wire 7 ^ opcode [6:0] $end
$var wire 32 _ op2_mul [31:0] $end
$var wire 32 ` op1_mul [31:0] $end
$var wire 64 a mulhsu_temp_invert [63:0] $end
$var wire 64 b mulhsu_temp [63:0] $end
$var wire 64 c mulh_temp_invert [63:0] $end
$var wire 64 d mulh_temp [63:0] $end
$var wire 64 e mul_temp [63:0] $end
$var wire 1 7 inst_valid_i $end
$var wire 32 f inst_i [31:0] $end
$var wire 32 g inst_addr_i [31:0] $end
$var wire 7 h funct7 [6:0] $end
$var wire 3 i funct3 [2:0] $end
$var reg 32 j div_dividend_o [31:0] $end
$var reg 32 k div_divisor_o [31:0] $end
$var reg 3 l div_funct3 [2:0] $end
$var reg 5 m div_rd_reg [4:0] $end
$var reg 1 n div_reg_we $end
$var reg 1 D div_start_o $end
$var reg 1 o div_starting $end
$var reg 32 p hold_addr_o [31:0] $end
$var reg 1 B hold_flag_o $end
$var reg 1 q is_jumping $end
$var reg 32 r jump_addr_o [31:0] $end
$var reg 1 @ jump_flag_o $end
$var reg 5 s reg_waddr_o [4:0] $end
$var reg 32 t reg_wdata_o [31:0] $end
$var reg 1 = reg_we_o $end
$var reg 32 u sram_raddr_o [31:0] $end
$var reg 32 v sram_waddr_o [31:0] $end
$var reg 32 w sram_wdata_o [31:0] $end
$upscope $end
$scope module u_id $end
$var wire 1 $ clk $end
$var wire 1 B hold_flag_ex_i $end
$var wire 1 @ jump_flag_ex_i $end
$var wire 1 % rst $end
$var wire 5 x rs2 [4:0] $end
$var wire 5 y rs1 [4:0] $end
$var wire 5 z rd [4:0] $end
$var wire 7 { opcode [6:0] $end
$var wire 32 | inst_i [31:0] $end
$var wire 32 } inst_addr_i [31:0] $end
$var wire 7 ~ funct7 [6:0] $end
$var wire 3 !" funct3 [2:0] $end
$var reg 32 "" inst_addr_o [31:0] $end
$var reg 32 #" inst_o [31:0] $end
$var reg 1 7 inst_valid_o $end
$var reg 5 $" reg1_raddr_o [4:0] $end
$var reg 1 5 reg1_re_o $end
$var reg 5 %" reg2_raddr_o [4:0] $end
$var reg 1 3 reg2_re_o $end
$var reg 5 &" reg_waddr_o [4:0] $end
$var reg 1 1 reg_we_o $end
$var reg 1 0 sram_re_o $end
$var reg 1 / sram_we_o $end
$upscope $end
$scope module u_if_id $end
$var wire 1 $ clk $end
$var wire 1 B hold_flag_ex_i $end
$var wire 1 @ jump_flag_ex_i $end
$var wire 1 % rst $end
$var wire 32 '" inst_i [31:0] $end
$var wire 32 (" inst_addr_i [31:0] $end
$var reg 32 )" inst_addr_o [31:0] $end
$var reg 32 *" inst_o [31:0] $end
$upscope $end
$scope module u_pc_reg $end
$var wire 1 $ clk $end
$var wire 32 +" hold_addr_ex_i [31:0] $end
$var wire 1 B hold_flag_ex_i $end
$var wire 32 ," jump_addr_ex_i [31:0] $end
$var wire 1 @ jump_flag_ex_i $end
$var wire 1 % rst $end
$var reg 32 -" offset [31:0] $end
$var reg 32 ." pc_o [31:0] $end
$var reg 1 + re_o $end
$upscope $end
$scope module u_regs $end
$var wire 1 $ clk $end
$var wire 5 /" raddr1 [4:0] $end
$var wire 5 0" raddr2 [4:0] $end
$var wire 1 5 re1 $end
$var wire 1 3 re2 $end
$var wire 1 % rst $end
$var wire 5 1" waddr [4:0] $end
$var wire 32 2" wdata [31:0] $end
$var wire 1 = we $end
$var reg 32 3" rdata1 [31:0] $end
$var reg 32 4" rdata2 [31:0] $end
$upscope $end
$scope module u_sim_ram $end
$var wire 1 $ clk $end
$var wire 32 5" ex_raddr_i [31:0] $end
$var wire 1 0 ex_re_i $end
$var wire 32 6" pc_raddr_i [31:0] $end
$var wire 1 + pc_re_i $end
$var wire 1 % rst $end
$var wire 32 7" waddr_i [31:0] $end
$var wire 32 8" wdata_i [31:0] $end
$var wire 1 / we_i $end
$var reg 32 9" ex_rdata_o [31:0] $end
$var reg 32 :" pc_rdata_o [31:0] $end
$upscope $end
$upscope $end
$upscope $end
$enddefinitions $end
#0
$dumpvars
b0 :"
b0 9"
bx 8"
bx 7"
bx 6"
b0 5"
b0 4"
b0 3"
bx 2"
bx 1"
bx 0"
bx /"
bx ."
bx -"
bx ,"
bx +"
bx *"
bx )"
bx ("
b0 '"
bx &"
bx %"
bx $"
bx #"
bx ""
bx !"
bx ~
bx }
bx |
bx {
bx z
bx y
bx x
bx w
bx v
b0 u
bx t
bx s
bx r
0q
bx p
0o
0n
bx m
bx l
b0 k
b0 j
bx i
bx h
bx g
bx f
b0 e
b0 d
b0 c
b0 b
b0 a
b0 `
b0 _
bx ^
bx ]
b0 \
b0 [
bx Z
bx Y
bx X
bx W
b0 V
bx U
bx T
bx S
bx R
bx Q
bx P
bx O
bx N
bx M
bx L
bx K
b0 J
b0 I
xH
bx G
b0 F
b0 E
0D
bx C
0B
bx A
0@
bx ?
bx >
x=
b0 <
bx ;
bx :
bx 9
bx 8
x7
bx 6
x5
bx 4
x3
bx 2
x1
x0
x/
bx .
bx -
bx ,
x+
b0 *
b0 )
b0 (
b0 '
bx &
0%
0$
bx #
bx "
bx !
$end
#10000
0=
b0 U
b0 W
b0 x
b0 y
b0 z
b0 ~
b0 !"
b0 {
b0 Y
b0 X
b0 ]
b0 h
b0 i
b0 ^
b0 -"
b0 ,
b0 ("
b0 ."
b0 6"
0+
b0 .
b0 }
b0 )"
b0 -
b0 |
b0 *"
07
00
03
05
0/
01
b0 8
b0 f
b0 #"
b11111111111111111111111111111111 P
b0 L
b0 M
b0 G
b0 R
b0 T
0H
b0 S
1$
#20000
0$
#30000
1$
#40000
0$
1%
#50000
b10000000000000000000100010011 )
b10000000000000000000100010011 '"
b10000000000000000000100010011 :"
b100 -"
1+
b0 9
b0 g
b0 ""
1$
#60000
0$
#70000
b110100010011 )
b110100010011 '"
b110100010011 :"
b10 z
b1000 ~
b10011 {
b10000000000000000000100010011 -
b10000000000000000000100010011 |
b10000000000000000000100010011 *"
b1000 -"
b100 ,
b100 ("
b100 ."
b100 6"
1$
#80000
0$
#90000
b100000000 >
b100000000 t
b100000000 2"
b110110010011 )
b110110010011 '"
b110110010011 :"
1=
b10 ?
b10 s
b10 1"
b10 U
b11010 z
b0 ~
b100000000 X
b10 ]
b1000 h
b10011 ^
b1100 -"
b1000 ,
b1000 ("
b1000 ."
b1000 6"
b100 .
b100 }
b100 )"
b110100010011 -
b110100010011 |
b110100010011 *"
b0 6
b0 $"
b0 /"
15
b10 2
b10 Z
b10 &"
11
17
b10000000000000000000100010011 8
b10000000000000000000100010011 f
b10000000000000000000100010011 #"
1$
#100000
0$
#110000
b0 >
b0 t
b0 2"
b11010 ?
b11010 s
b11010 1"
b100110000000000000011101111 )
b100110000000000000011101111 '"
b100110000000000000011101111 :"
b0 X
b11010 ]
b0 h
b11011 z
b11010 2
b11010 Z
b11010 &"
b100 9
b100 g
b100 ""
b110100010011 8
b110100010011 f
b110100010011 #"
b1000 .
b1000 }
b1000 )"
b110110010011 -
b110110010011 |
b110110010011 *"
b10000 -"
b1100 ,
b1100 ("
b1100 ."
b1100 6"
1$
#120000
0$
#130000
b100000000110100010011 )
b100000000110100010011 '"
b100000000110100010011 :"
b11011 ?
b11011 s
b11011 1"
b11 U
b1100 x
b1 z
b10 ~
b1101111 {
b11011 ]
b10100 -"
b10000 ,
b10000 ("
b10000 ."
b10000 6"
b0 !
b1100 .
b1100 }
b1100 )"
b100110000000000000011101111 -
b100110000000000000011101111 |
b100110000000000000011101111 *"
b11011 2
b11011 Z
b11011 &"
b1000 9
b1000 g
b1000 ""
b110110010011 8
b110110010011 f
b110110010011 #"
1$
#140000
0$
#150000
b1011000 A
b1011000 r
b1011000 ,"
1q
1@
b10000 >
b10000 t
b10000 2"
b1 ?
b1 s
b1 1"
b1101111 )
b1101111 '"
b1101111 :"
b1 U
b1100 Y
b1001100 X
b1 ]
b10 h
b1101111 ^
b1 x
b11010 z
b0 ~
b10011 {
b1 2
b1 Z
b1 &"
b1100 9
b1100 g
b1100 ""
b100110000000000000011101111 8
b100110000000000000011101111 f
b100110000000000000011101111 #"
b10000 .
b10000 }
b10000 )"
b100000000110100010011 -
b100000000110100010011 |
b100000000110100010011 *"
b0 "
b11000 -"
b10100 ,
b10100 ("
b10100 ."
b10100 6"
1$
#160000
0$
#170000
0q
0@
b11111110000000010000000100010011 )
b11111110000000010000000100010011 '"
b11111110000000010000000100010011 :"
b1100 A
b1100 r
b1100 ,"
0=
b0 U
b0 x
b0 z
b1 {
b0 Y
b0 X
b0 ]
b0 h
b1 ^
b1011100 -"
b1011000 ,
b1011000 ("
b1011000 ."
b1011000 6"
b0 .
b0 }
b0 )"
b1 -
b1 |
b1 *"
b1 8
b1 f
b1 #"
01
1$
#180000
0$
#190000
b100010010111000100011 )
b100010010111000100011 '"
b100010010111000100011 :"
b10 y
b10 z
b1111111 ~
b10011 {
b0 9
b0 g
b0 ""
b1011000 .
b1011000 }
b1011000 )"
b11111110000000010000000100010011 -
b11111110000000010000000100010011 |
b11111110000000010000000100010011 *"
b1100000 -"
b1011100 ,
b1011100 ("
b1011100 ."
b1011100 6"
1$
#200000
0$
#210000
b100000000 F
b100000000 J
b100000000 j
b100000000 `
b11100000 >
b11100000 t
b11100000 2"
b100000010010110000100011 )
b100000010010110000100011 '"
b100000010010110000100011 :"
b100000000 (
b100000000 \
b100000000 3"
1=
b10 ?
b10 s
b10 1"
b10 U
b1 x
b11100 z
b0 ~
b10 !"
b100011 {
b11111111111111111111111111100000 X
b10 ]
b1111111 h
b10011 ^
b1100100 -"
b1100000 ,
b1100000 ("
b1100000 ."
b1100000 6"
b1011100 .
b1011100 }
b1011100 )"
b100010010111000100011 -
b100010010111000100011 |
b100010010111000100011 *"
b10 6
b10 $"
b10 /"
b10 2
b10 Z
b10 &"
11
b1011000 9
b1011000 g
b1011000 ""
b11111110000000010000000100010011 8
b11111110000000010000000100010011 f
b11111110000000010000000100010011 #"
1$
#220000
0$
#230000
b10000 E
b10000 I
b10000 k
b11100000 F
b11100000 J
b11100000 j
b1111111111111111111111111111111111111111111111111111001000000000 c
b1111111111111111111111111111111111111111111111111111001000000000 a
b111000000000 d
b10000 _
b11100000 `
b10000 :
b10000 w
b10000 8"
b11111100 ;
b11111100 v
b11111100 7"
0=
b100000001 >
b100000001 t
b100000001 2"
b111000000000 b
b111000000000 e
b10000 '
b10000 [
b10000 4"
b11100000 (
b11100000 \
b11100000 3"
b10000000010000010000010011 )
b10000000010000010000010011 '"
b10000000010000010000010011 :"
b0 U
b1 W
b1 Y
b1 X
b11100 ]
b0 h
b10 i
b100011 ^
b1000 x
b11000 z
01
1/
b1 4
b1 %"
b1 0"
13
b1011100 9
b1011100 g
b1011100 ""
b100010010111000100011 8
b100010010111000100011 f
b100010010111000100011 #"
b1100000 .
b1100000 }
b1100000 )"
b100000010010110000100011 -
b100000010010110000100011 |
b100000010010110000100011 *"
b1101000 -"
b1100100 ,
b1100100 ("
b1100100 ."
b1100100 6"
1$
#240000
0$
#250000
bx :
bx w
bx 8"
bx E
bx I
bx k
bx c
bx a
bx d
bx _
b11111110000001000010010000100011 )
b11111110000001000010010000100011 '"
b11111110000001000010010000100011 :"
bx b
bx e
bx '
bx [
bx 4"
b11111000 ;
b11111000 v
b11111000 7"
b0 W
b0 x
b1000 z
b1 ~
b0 !"
b10011 {
b1000 Y
b1000 X
b11000 ]
b1101100 -"
b1101000 ,
b1101000 ("
b1101000 ."
b1101000 6"
b1100100 .
b1100100 }
b1100100 )"
b10000000010000010000010011 -
b10000000010000010000010011 |
b10000000010000010000010011 *"
b1000 4
b1000 %"
b1000 0"
b1100000 9
b1100000 g
b1100000 ""
b100000010010110000100011 8
b100000010010110000100011 f
b100000010010110000100011 #"
1$
#260000
0$
#270000
b100000000 >
b100000000 t
b100000000 2"
1=
b100001000 ;
b100001000 v
b100001000 7"
b1000 ?
b1000 s
b1000 1"
b11111110000001000010011000100011 )
b11111110000001000010011000100011 '"
b11111110000001000010011000100011 :"
b0 Y
b100000 X
b1000 ]
b1 h
b0 i
b10011 ^
b1000 y
b1111111 ~
b10 !"
b100011 {
0/
b1000 2
b1000 Z
b1000 &"
11
b1100100 9
b1100100 g
b1100100 ""
b10000000010000010000010011 8
b10000000010000010000010011 f
b10000000010000010000010011 #"
b1101000 .
b1101000 }
b1101000 )"
b11111110000001000010010000100011 -
b11111110000001000010010000100011 |
b11111110000001000010010000100011 *"
b1110000 -"
b1101100 ,
b1101100 ("
b1101100 ."
b1101100 6"
1$
#280000
0$
#290000
b0 :
b0 w
b0 8"
b0 E
b0 I
b0 k
b100000000 F
b100000000 J
b100000000 j
b0 c
b0 a
b0 d
b0 _
b100000000 `
b11101000 ;
b11101000 v
b11101000 7"
b10000000000000000001101111 )
b10000000000000000001101111 '"
b10000000000000000001101111 :"
0=
b0 b
b0 e
b0 '
b0 [
b0 4"
b100000000 (
b100000000 \
b100000000 3"
b11000000 >
b11000000 t
b11000000 2"
b1100 z
b11111111111111111111111111100000 X
b1111111 h
b10 i
b100011 ^
b1110100 -"
b1110000 ,
b1110000 ("
b1110000 ."
b1110000 6"
b1101100 .
b1101100 }
b1101100 )"
b11111110000001000010011000100011 -
b11111110000001000010011000100011 |
b11111110000001000010011000100011 *"
01
1/
b0 4
b0 %"
b0 0"
b1000 6
b1000 $"
b1000 /"
b1101000 9
b1101000 g
b1101000 ""
b11111110000001000010010000100011 8
b11111110000001000010010000100011 f
b11111110000001000010010000100011 #"
1$
#300000
0$
#310000
b11101100 ;
b11101100 v
b11101100 7"
b11111110100001000010011100000011 )
b11111110100001000010011100000011 '"
b11111110100001000010011100000011 :"
b1100 ]
b0 y
b0 z
b1 ~
b0 !"
b1101111 {
b1101100 9
b1101100 g
b1101100 ""
b11111110000001000010011000100011 8
b11111110000001000010011000100011 f
b11111110000001000010011000100011 #"
b1110000 .
b1110000 }
b1110000 )"
b10000000000000000001101111 -
b10000000000000000001101111 |
b10000000000000000001101111 *"
b1111000 -"
b1110100 ,
b1110100 ("
b1110100 ."
b1110100 6"
1$
#320000
0$
#330000
b1110100 >
b1110100 t
b1110100 2"
b10010000 A
b10010000 r
b10010000 ,"
1q
1@
b11111110110001000010011110000011 )
b11111110110001000010011110000011 '"
b11111110110001000010011110000011 :"
1=
b100100000 ;
b100100000 v
b100100000 7"
b0 ?
b0 s
b0 1"
b1000 x
b1000 y
b1110 z
b1111111 ~
b10 !"
b11 {
b100000 X
b0 ]
b1 h
b0 i
b1101111 ^
b1111100 -"
b1111000 ,
b1111000 ("
b1111000 ."
b1111000 6"
b1110100 .
b1110100 }
b1110100 )"
b11111110100001000010011100000011 -
b11111110100001000010011100000011 |
b11111110100001000010011100000011 *"
b0 2
b0 Z
b0 &"
11
0/
b1110000 9
b1110000 g
b1110000 ""
b10000000000000000001101111 8
b10000000000000000001101111 f
b10000000000000000001101111 #"
1$
#340000
0$
#350000
0q
0@
b1110000 A
b1110000 r
b1110000 ,"
0=
b11111110110001000010011100000011 )
b11111110110001000010011100000011 '"
b11111110110001000010011100000011 :"
b0 X
b0 h
b1 ^
b0 x
b0 y
b0 z
b0 ~
b0 !"
b1 {
b1 8
b1 f
b1 #"
01
b0 .
b0 }
b0 )"
b1 -
b1 |
b1 *"
b10010100 -"
b10010000 ,
b10010000 ("
b10010000 ."
b10010000 6"
1$
#360000
0$
#370000
b110010000000000011110010011 )
b110010000000000011110010011 '"
b110010000000000011110010011 :"
b1100 x
b1000 y
b1110 z
b1111111 ~
b10 !"
b11 {
b10011000 -"
b10010100 ,
b10010100 ("
b10010100 ."
b10010100 6"
b10010000 .
b10010000 }
b10010000 )"
b11111110110001000010011100000011 -
b11111110110001000010011100000011 |
b11111110110001000010011100000011 *"
b0 9
b0 g
b0 ""
1$
#380000
0$
#390000
b0 >
b0 t
b0 2"
b11101100 <
b11101100 u
b11101100 5"
b0 *
b0 V
b0 9"
1=
b1110 ?
b1110 s
b1110 1"
b11111100111001111101111011100011 )
b11111100111001111101111011100011 '"
b11111100111001111101111011100011 :"
b10 U
b1100 Y
b11111111111111111111111111101100 X
b1110 ]
b1111111 h
b10 i
b11 ^
b100 x
b0 y
b1111 z
b11 ~
b0 !"
b10011 {
10
b1110 2
b1110 Z
b1110 &"
11
b10010000 9
b10010000 g
b10010000 ""
b11111110110001000010011100000011 8
b11111110110001000010011100000011 f
b11111110110001000010011100000011 #"
b10010100 .
b10010100 }
b10010100 )"
b110010000000000011110010011 -
b110010000000000011110010011 |
b110010000000000011110010011 *"
b10011100 -"
b10011000 ,
b10011000 ("
b10011000 ."
b10011000 6"
1$
#400000
0$
#410000
b0 F
b0 J
b0 j
bx *
bx V
bx 9"
b0 `
b1100100 >
b1100100 t
b1100100 2"
b11111110100001000010011100000011 )
b11111110100001000010011100000011 '"
b11111110100001000010011100000011 :"
b0 (
b0 \
b0 3"
b101100100 <
b101100100 u
b101100100 5"
b1111 ?
b1111 s
b1111 1"
b11 U
b1110 x
b1111 y
b11101 z
b1111110 ~
b101 !"
b1100011 {
b100 Y
b1100100 X
b1111 ]
b11 h
b0 i
b10011 ^
b10100000 -"
b10011100 ,
b10011100 ("
b10011100 ."
b10011100 6"
b10011000 .
b10011000 }
b10011000 )"
b11111100111001111101111011100011 -
b11111100111001111101111011100011 |
b11111100111001111101111011100011 *"
b0 6
b0 $"
b0 /"
b1111 2
b1111 Z
b1111 &"
b10010100 9
b10010100 g
b10010100 ""
b110010000000000011110010011 8
b110010000000000011110010011 f
b110010000000000011110010011 #"
1$
#420000
0$
#430000
b1100100 F
b1100100 J
b1100100 j
b1100100 `
b1110100 A
b1110100 r
b1110100 ,"
1q
1@
0=
b11111111111111111111111111001110 >
b11111111111111111111111111001110 t
b11111111111111111111111111001110 2"
b1100100 (
b1100100 \
b1100100 3"
b1011110110111 )
b1011110110111 '"
b1011110110111 :"
b1 U
b10 W
b1110 Y
b11111111111111111111111111001110 X
b11101 ]
b1111110 h
b101 i
b1100011 ^
b1000 x
b1000 y
b1110 z
b1111111 ~
b10 !"
b11 {
01
b1110 4
b1110 %"
b1110 0"
b1111 6
b1111 $"
b1111 /"
b10011000 9
b10011000 g
b10011000 ""
b11111100111001111101111011100011 8
b11111100111001111101111011100011 f
b11111100111001111101111011100011 #"
b10011100 .
b10011100 }
b10011100 )"
b11111110100001000010011100000011 -
b11111110100001000010011100000011 |
b11111110100001000010011100000011 *"
b10100100 -"
b10100000 ,
b10100000 ("
b10100000 ."
b10100000 6"
1$
#440000
0$
#450000
0q
0@
b11111110100001000010011100000011 )
b11111110100001000010011100000011 '"
b11111110100001000010011100000011 :"
b10011000 A
b10011000 r
b10011000 ,"
b0 U
b0 W
b0 x
b0 y
b0 z
b0 ~
b0 !"
b1 {
b0 Y
b0 X
b0 ]
b0 h
b0 i
b1 ^
b1111000 -"
b1110100 ,
b1110100 ("
b1110100 ."
b1110100 6"
b0 .
b0 }
b0 )"
b1 -
b1 |
b1 *"
b1 8
b1 f
b1 #"
1$
#460000
0$
#470000
b11111110110001000010011110000011 )
b11111110110001000010011110000011 '"
b11111110110001000010011110000011 :"
b1000 x
b1000 y
b1110 z
b1111111 ~
b10 !"
b11 {
b0 9
b0 g
b0 ""
b1110100 .
b1110100 }
b1110100 )"
b11111110100001000010011100000011 -
b11111110100001000010011100000011 |
b11111110100001000010011100000011 *"
b1111100 -"
b1111000 ,
b1111000 ("
b1111000 ."
b1111000 6"
1$
#480000
0$
#490000
b0 *
b0 V
b0 9"
b100000000 F
b100000000 J
b100000000 j
b100000000 `
b0 >
b0 t
b0 2"
b11101000 <
b11101000 u
b11101000 5"
b111101110000011110110011 )
b111101110000011110110011 '"
b111101110000011110110011 :"
1=
b100000000 (
b100000000 \
b100000000 3"
b1110 ?
b1110 s
b1110 1"
b10 U
b1100 x
b1111 z
b1000 Y
b11111111111111111111111111101000 X
b1110 ]
b1111111 h
b10 i
b11 ^
b10000000 -"
b1111100 ,
b1111100 ("
b1111100 ."
b1111100 6"
b1111000 .
b1111000 }
b1111000 )"
b11111110110001000010011110000011 -
b11111110110001000010011110000011 |
b11111110110001000010011110000011 *"
b1110 2
b1110 Z
b1110 &"
11
b1000 6
b1000 $"
b1000 /"
b1110100 9
b1110100 g
b1110100 ""
b11111110100001000010011100000011 8
b11111110100001000010011100000011 f
b11111110100001000010011100000011 #"
1$
#500000
0$
#510000
b11101100 <
b11101100 u
b11101100 5"
b1111 ?
b1111 s
b1111 1"
b11111110111101000010010000100011 )
b11111110111101000010010000100011 '"
b11111110111101000010010000100011 :"
b11 U
b1100 Y
b11111111111111111111111111101100 X
b1111 ]
b1111 x
b1110 y
b0 ~
b0 !"
b110011 {
b1111 2
b1111 Z
b1111 &"
b1111000 9
b1111000 g
b1111000 ""
b11111110110001000010011110000011 8
b11111110110001000010011110000011 f
b11111110110001000010011110000011 #"
b1111100 .
b1111100 }
b1111100 )"
b111101110000011110110011 -
b111101110000011110110011 |
b111101110000011110110011 *"
b10000100 -"
b10000000 ,
b10000000 ("
b10000000 ."
b10000000 6"
1$
#520000
0$
#530000
b0 F
b0 J
b0 j
bx *
bx V
bx 9"
b0 `
b0 >
b0 t
b0 2"
b11111110110001000010011110000011 )
b11111110110001000010011110000011 '"
b11111110110001000010011110000011 :"
b0 (
b0 \
b0 3"
b100001111 <
b100001111 u
b100001111 5"
b11 W
b1000 y
b1000 z
b1111111 ~
b10 !"
b100011 {
b1111 Y
b1111 X
b0 h
b0 i
b110011 ^
b10001000 -"
b10000100 ,
b10000100 ("
b10000100 ."
b10000100 6"
b10000000 .
b10000000 }
b10000000 )"
b11111110111101000010010000100011 -
b11111110111101000010010000100011 |
b11111110111101000010010000100011 *"
b1111 4
b1111 %"
b1111 0"
b1110 6
b1110 $"
b1110 /"
b1111100 9
b1111100 g
b1111100 ""
b111101110000011110110011 8
b111101110000011110110011 f
b111101110000011110110011 #"
1$
#540000
0$
#550000
b100000000 F
b100000000 J
b100000000 j
b100000000 `
b11101000 ;
b11101000 v
b11101000 7"
0=
b100000000 (
b100000000 \
b100000000 3"
b101111000011110010011 )
b101111000011110010011 '"
b101111000011110010011 :"
b0 U
b11111111111111111111111111101111 X
b1000 ]
b1111111 h
b10 i
b100011 ^
b1100 x
b1111 z
b11 {
01
1/
b1000 6
b1000 $"
b1000 /"
b10000000 9
b10000000 g
b10000000 ""
b11111110111101000010010000100011 8
b11111110111101000010010000100011 f
b11111110111101000010010000100011 #"
b10000100 .
b10000100 }
b10000100 )"
b11111110110001000010011110000011 -
b11111110110001000010011110000011 |
b11111110110001000010011110000011 *"
b10001100 -"
b10001000 ,
b10001000 ("
b10001000 ."
b10001000 6"
1$
#560000
0$
#570000
b0 *
b0 V
b0 9"
b0 >
b0 t
b0 2"
b11101100 <
b11101100 u
b11101100 5"
b11111110111101000010011000100011 )
b11111110111101000010011000100011 '"
b11111110111101000010011000100011 :"
1=
b11101111 ;
b11101111 v
b11101111 7"
b11 U
b0 W
b1 x
b1111 y
b0 ~
b0 !"
b10011 {
b1100 Y
b11111111111111111111111111101100 X
b1111 ]
b11 ^
b10010000 -"
b10001100 ,
b10001100 ("
b10001100 ."
b10001100 6"
b10001000 .
b10001000 }
b10001000 )"
b101111000011110010011 -
b101111000011110010011 |
b101111000011110010011 *"
0/
11
b10000100 9
b10000100 g
b10000100 ""
b11111110110001000010011110000011 8
b11111110110001000010011110000011 f
b11111110110001000010011110000011 #"
1$
#580000
0$
#590000
b0 F
b0 J
b0 j
bx *
bx V
bx 9"
b0 `
b1 >
b1 t
b1 2"
b0 (
b0 \
b0 3"
b100000001 <
b100000001 u
b100000001 5"
b11111110110001000010011100000011 )
b11111110110001000010011100000011 '"
b11111110110001000010011100000011 :"
b1 W
b1 Y
b1 X
b0 h
b0 i
b10011 ^
b1111 x
b1000 y
b1100 z
b1111111 ~
b10 !"
b100011 {
b1111 6
b1111 $"
b1111 /"
b10001000 9
b10001000 g
b10001000 ""
b101111000011110010011 8
b101111000011110010011 f
b101111000011110010011 #"
b10001100 .
b10001100 }
b10001100 )"
b11111110111101000010011000100011 -
b11111110111101000010011000100011 |
b11111110111101000010011000100011 *"
b10010100 -"
b10010000 ,
b10010000 ("
b10010000 ."
b10010000 6"
1$
#600000
0$
#610000
b1 :
b1 w
b1 8"
b1 E
b1 I
b1 k
b100000000 F
b100000000 J
b100000000 j
b1111111111111111111111111111111111111111111111111111111100000000 c
b1111111111111111111111111111111111111111111111111111111100000000 a
b100000000 d
b1 _
b100000000 b
b100000000 `
b11101100 ;
b11101100 v
b11101100 7"
b110010000000000011110010011 )
b110010000000000011110010011 '"
b110010000000000011110010011 :"
b100000000 e
b1 '
b1 [
b1 4"
0=
b100000000 (
b100000000 \
b100000000 3"
b11111111111111111111111111101111 >
b11111111111111111111111111101111 t
b11111111111111111111111111101111 2"
b0 U
b11 W
b1100 x
b1110 z
b11 {
b1111 Y
b11111111111111111111111111101111 X
b1100 ]
b1111111 h
b10 i
b100011 ^
b10011000 -"
b10010100 ,
b10010100 ("
b10010100 ."
b10010100 6"
b10010000 .
b10010000 }
b10010000 )"
b11111110110001000010011100000011 -
b11111110110001000010011100000011 |
b11111110110001000010011100000011 *"
01
1/
b1000 6
b1000 $"
b1000 /"
b10001100 9
b10001100 g
b10001100 ""
b11111110111101000010011000100011 8
b11111110111101000010011000100011 f
b11111110111101000010011000100011 #"
1$
#620000
0$
#630000
b1 *
b1 V
b1 9"
b1 >
b1 t
b1 2"
b11101100 <
b11101100 u
b11101100 5"
1=
b11101110 ;
b11101110 v
b11101110 7"
b1110 ?
b1110 s
b1110 1"
b11111100111001111101111011100011 )
b11111100111001111101111011100011 '"
b11111100111001111101111011100011 :"
b10 U
b0 W
b1100 Y
b11111111111111111111111111101100 X
b1110 ]
b11 ^
b100 x
b0 y
b1111 z
b11 ~
b0 !"
b10011 {
0/
b1110 2
b1110 Z
b1110 &"
11
b10010000 9
b10010000 g
b10010000 ""
b11111110110001000010011100000011 8
b11111110110001000010011100000011 f
b11111110110001000010011100000011 #"
b10010100 .
b10010100 }
b10010100 )"
b110010000000000011110010011 -
b110010000000000011110010011 |
b110010000000000011110010011 *"
b10011100 -"
b10011000 ,
b10011000 ("
b10011000 ."
b10011000 6"
1$
#640000
0$
