sim/tinyriscv_core_tb.vcd
$date
	Sun Mar 08 15:00:23 2020
$end
$version
	Icarus Verilog
$end
$timescale
	1ps
$end
$scope module tinyriscv_core_tb $end
$var wire 1 ! TCK $end
$var wire 1 " TDI $end
$var wire 1 # TMS $end
$var wire 32 $ x26 [31:0] $end
$var wire 32 % x27 [31:0] $end
$var wire 32 & x3 [31:0] $end
$var wire 1 ' TDO $end
$var reg 1 ( clk $end
$var reg 1 ) rst $end
$var integer 32 * r [31:0] $end
$scope module u_tinyriscv_core $end
$var wire 1 ( clk $end
$var wire 1 + halt_signal $end
$var wire 1 ! jtag_TCK $end
$var wire 1 " jtag_TDI $end
$var wire 1 # jtag_TMS $end
$var wire 1 ) rst $end
$var wire 32 , timer_rdata_o [31:0] $end
$var wire 1 - timer_int_o $end
$var wire 32 . regs_rdata2_o [31:0] $end
$var wire 32 / regs_rdata1_o [31:0] $end
$var wire 1 0 ram_we_o $end
$var wire 32 1 ram_pc_rdata_o [31:0] $end
$var wire 32 2 ram_ex_rdata_o [31:0] $end
$var wire 32 3 ram_dm_rdata_o [31:0] $end
$var wire 1 4 pc_re_o $end
$var wire 32 5 pc_pc_o [31:0] $end
$var wire 1 6 jtag_reset_req $end
$var wire 1 7 jtag_mem_we $end
$var wire 32 8 jtag_mem_wdata [31:0] $end
$var wire 32 9 jtag_mem_addr [31:0] $end
$var wire 1 : jtag_halt_req $end
$var wire 1 ' jtag_TDO $end
$var wire 32 ; if_inst_o [31:0] $end
$var wire 32 < if_inst_addr_o [31:0] $end
$var wire 1 = id_sram_we_o $end
$var wire 1 > id_sram_re_o $end
$var wire 1 ? id_reg_we_o $end
$var wire 5 @ id_reg_waddr_o [4:0] $end
$var wire 1 A id_reg2_re_o $end
$var wire 5 B id_reg2_raddr_o [4:0] $end
$var wire 1 C id_reg1_re_o $end
$var wire 5 D id_reg1_raddr_o [4:0] $end
$var wire 1 E id_inst_valid_o $end
$var wire 32 F id_inst_o [31:0] $end
$var wire 32 G id_inst_addr_o [31:0] $end
$var wire 32 H ex_sram_wdata_o [31:0] $end
$var wire 32 I ex_sram_waddr_o [31:0] $end
$var wire 32 J ex_sram_raddr_o [31:0] $end
$var wire 1 K ex_reg_we_o $end
$var wire 32 L ex_reg_wdata_o [31:0] $end
$var wire 5 M ex_reg_waddr_o [4:0] $end
$var wire 1 N ex_jump_flag_o $end
$var wire 32 O ex_jump_addr_o [31:0] $end
$var wire 1 P ex_int_flag_o $end
$var wire 32 Q ex_int_addr_o [31:0] $end
$var wire 1 R ex_hold_flag_o $end
$var wire 32 S ex_hold_addr_o [31:0] $end
$var wire 1 T ex_div_start_o $end
$var wire 32 U ex_div_divisor_o [31:0] $end
$var wire 32 V ex_div_dividend_o [31:0] $end
$var wire 64 W div_result_o [63:0] $end
$var wire 1 X div_ready_o $end
$var reg 1 Y jtag_rst $end
$var reg 3 Z jtag_rst_cnt [2:0] $end
$var reg 1 [ over $end
$var reg 1 \ succ $end
$scope module u_div $end
$var wire 1 ( clk $end
$var wire 1 ) rst $end
$var wire 1 T start_i $end
$var wire 32 ] divisor_i [31:0] $end
$var wire 32 ^ dividend_i [31:0] $end
$var reg 7 _ count [6:0] $end
$var reg 32 ` div_remain [31:0] $end
$var reg 32 a div_result [31:0] $end
$var reg 32 b dividend_temp [31:0] $end
$var reg 32 c divisor_temp [31:0] $end
$var reg 32 d divisor_zero_result [31:0] $end
$var reg 32 e minuend [31:0] $end
$var reg 1 X ready_o $end
$var reg 64 f result_o [63:0] $end
$var reg 2 g state [1:0] $end
$upscope $end
$scope module u_ex $end
$var wire 1 ( clk $end
$var wire 32 h div_dividend_o [31:0] $end
$var wire 32 i div_divisor_o [31:0] $end
$var wire 1 X div_ready_i $end
$var wire 64 j div_result_i [63:0] $end
$var wire 1 ) rst $end
$var wire 2 k sram_waddr_index [1:0] $end
$var wire 32 l sram_rdata_i [31:0] $end
$var wire 2 m sram_raddr_index [1:0] $end
$var wire 32 n sign_extend_tmp [31:0] $end
$var wire 5 o shift_bits [4:0] $end
$var wire 1 ? reg_we_i $end
$var wire 5 p reg_waddr_i [4:0] $end
$var wire 32 q reg2_rdata_i [31:0] $end
$var wire 32 r reg1_rdata_i [31:0] $end
$var wire 5 s rd [4:0] $end
$var wire 7 t opcode [6:0] $end
$var wire 32 u op2_mul [31:0] $end
$var wire 32 v op1_mul [31:0] $end
$var wire 64 w mulhsu_temp_invert [63:0] $end
$var wire 64 x mulhsu_temp [63:0] $end
$var wire 64 y mulh_temp_invert [63:0] $end
$var wire 64 z mulh_temp [63:0] $end
$var wire 64 { mul_temp [63:0] $end
$var wire 1 - int_sig_i $end
$var wire 1 E inst_valid_i $end
$var wire 32 | inst_i [31:0] $end
$var wire 32 } inst_addr_i [31:0] $end
$var wire 1 R hold_flag_o $end
$var wire 7 ~ funct7 [6:0] $end
$var wire 3 !" funct3 [2:0] $end
$var reg 3 "" div_funct3 [2:0] $end
$var reg 5 #" div_rd_reg [4:0] $end
$var reg 1 T div_start_o $end
$var reg 1 $" div_starting $end
$var reg 32 %" hold_addr_o [31:0] $end
$var reg 1 &" in_interrupt_context $end
$var reg 32 '" int_addr_o [31:0] $end
$var reg 1 P int_flag_o $end
$var reg 32 (" jump_addr_o [31:0] $end
$var reg 1 N jump_flag_o $end
$var reg 5 )" reg_waddr_o [4:0] $end
$var reg 32 *" reg_wdata_o [31:0] $end
$var reg 1 K reg_we_o $end
$var reg 32 +" saved_addr [31:0] $end
$var reg 32 ," sram_raddr_o [31:0] $end
$var reg 32 -" sram_waddr_o [31:0] $end
$var reg 32 ." sram_wdata_o [31:0] $end
$upscope $end
$scope module u_id $end
$var wire 1 ( clk $end
$var wire 1 R hold_flag_ex_i $end
$var wire 1 P int_flag_ex_i $end
$var wire 1 N jump_flag_ex_i $end
$var wire 1 ) rst $end
$var wire 5 /" rs2 [4:0] $end
$var wire 5 0" rs1 [4:0] $end
$var wire 5 1" rd [4:0] $end
$var wire 7 2" opcode [6:0] $end
$var wire 32 3" inst_i [31:0] $end
$var wire 32 4" inst_addr_i [31:0] $end
$var wire 1 : halt_flag_dm_i $end
$var wire 7 5" funct7 [6:0] $end
$var wire 3 6" funct3 [2:0] $end
$var reg 32 7" inst_addr_o [31:0] $end
$var reg 32 8" inst_o [31:0] $end
$var reg 1 E inst_valid_o $end
$var reg 5 9" reg1_raddr_o [4:0] $end
$var reg 1 C reg1_re_o $end
$var reg 5 :" reg2_raddr_o [4:0] $end
$var reg 1 A reg2_re_o $end
$var reg 5 ;" reg_waddr_o [4:0] $end
$var reg 1 ? reg_we_o $end
$var reg 1 > sram_re_o $end
$var reg 1 = sram_we_o $end
$upscope $end
$scope module u_if_id $end
$var wire 1 ( clk $end
$var wire 1 R hold_flag_ex_i $end
$var wire 1 P int_flag_ex_i $end
$var wire 1 N jump_flag_ex_i $end
$var wire 1 ) rst $end
$var wire 32 <" inst_i [31:0] $end
$var wire 32 =" inst_addr_i [31:0] $end
$var wire 1 : dm_halt_req_i $end
$var reg 32 >" inst_addr_o [31:0] $end
$var reg 32 ?" inst_o [31:0] $end
$upscope $end
$scope module u_jtag_top $end
$var wire 1 ! jtag_pin_TCK $end
$var wire 1 " jtag_pin_TDI $end
$var wire 1 # jtag_pin_TMS $end
$var wire 1 Y jtag_rst_n $end
$var wire 32 @" reg_rdata [31:0] $end
$var wire 1 6 reset_req $end
$var wire 1 A" reg_we $end
$var wire 32 B" reg_wdata [31:0] $end
$var wire 5 C" reg_addr [4:0] $end
$var wire 1 7 mem_we $end
$var wire 32 D" mem_wdata [31:0] $end
$var wire 32 E" mem_rdata [31:0] $end
$var wire 32 F" mem_addr [31:0] $end
$var wire 1 ' jtag_pin_TDO $end
$var wire 1 : halt_req $end
$var wire 1 G" dtm_req_valid $end
$var wire 40 H" dtm_req_data [39:0] $end
$var wire 40 I" dm_resp_data [39:0] $end
$var wire 1 J" dm_is_busy $end
$scope module u_jtag_dm $end
$var wire 1 ! clk $end
$var wire 32 K" dm_reg_rdata [31:0] $end
$var wire 1 Y rst_n $end
$var wire 1 G" dtm_req_valid $end
$var wire 40 L" dtm_req_data [39:0] $end
$var wire 32 M" dm_mem_rdata [31:0] $end
$var reg 32 N" abstractcs [31:0] $end
$var reg 6 O" address [5:0] $end
$var reg 32 P" data [31:0] $end
$var reg 32 Q" data0 [31:0] $end
$var reg 32 R" dcsr [31:0] $end
$var reg 1 : dm_halt_req $end
$var reg 1 J" dm_is_busy $end
$var reg 32 S" dm_mem_addr [31:0] $end
$var reg 32 T" dm_mem_wdata [31:0] $end
$var reg 1 7 dm_mem_we $end
$var reg 5 U" dm_reg_addr [4:0] $end
$var reg 32 V" dm_reg_wdata [31:0] $end
$var reg 1 A" dm_reg_we $end
$var reg 1 6 dm_reset_req $end
$var reg 40 W" dm_resp_data [39:0] $end
$var reg 32 X" dmcontrol [31:0] $end
$var reg 32 Y" dmstatus [31:0] $end
$var reg 32 Z" hartinfo [31:0] $end
$var reg 1 [" is_halted $end
$var reg 1 \" is_reseted $end
$var reg 2 ]" op [1:0] $end
$var reg 40 ^" req_data [39:0] $end
$var reg 32 _" sbaddress0 [31:0] $end
$var reg 32 `" sbcs [31:0] $end
$var reg 32 a" sbdata0 [31:0] $end
$var reg 2 b" state [1:0] $end
$upscope $end
$scope module u_jtag_driver $end
$var wire 6 c" addr_bits [5:0] $end
$var wire 40 d" busy_response [39:0] $end
$var wire 1 J" dm_is_busy $end
$var wire 40 e" dm_resp_data [39:0] $end
$var wire 32 f" idcode [31:0] $end
$var wire 1 g" is_busy $end
$var wire 1 ! jtag_TCK $end
$var wire 1 " jtag_TDI $end
$var wire 1 # jtag_TMS $end
$var wire 40 h" none_busy_response [39:0] $end
$var wire 1 Y rst_n $end
$var wire 32 i" dtmcs [31:0] $end
$var wire 1 j" dtm_reset $end
$var wire 2 k" dmi_stat [1:0] $end
$var reg 40 l" dtm_req_data [39:0] $end
$var reg 1 G" dtm_req_valid $end
$var reg 5 m" ir_reg [4:0] $end
$var reg 1 ' jtag_TDO $end
$var reg 4 n" jtag_state [3:0] $end
$var reg 40 o" shift_reg [39:0] $end
$var reg 1 p" sticky_busy $end
$upscope $end
$upscope $end
$scope module u_pc_reg $end
$var wire 1 ( clk $end
$var wire 1 : dm_halt_req_i $end
$var wire 1 6 dm_reset_req_i $end
$var wire 32 q" hold_addr_ex_i [31:0] $end
$var wire 1 R hold_flag_ex_i $end
$var wire 32 r" int_addr_ex_i [31:0] $end
$var wire 1 P int_flag_ex_i $end
$var wire 32 s" jump_addr_ex_i [31:0] $end
$var wire 1 N jump_flag_ex_i $end
$var wire 1 ) rst $end
$var reg 32 t" offset [31:0] $end
$var reg 32 u" pc_o [31:0] $end
$var reg 1 4 re_o $end
$upscope $end
$scope module u_regs $end
$var wire 1 ( clk $end
$var wire 5 v" raddr1 [4:0] $end
$var wire 5 w" raddr2 [4:0] $end
$var wire 1 C re1 $end
$var wire 1 A re2 $end
$var wire 1 ) rst $end
$var wire 5 x" waddr [4:0] $end
$var wire 32 y" wdata [31:0] $end
$var wire 1 K we $end
$var reg 32 z" rdata1 [31:0] $end
$var reg 32 {" rdata2 [31:0] $end
$upscope $end
$scope module u_sim_ram $end
$var wire 1 ( clk $end
$var wire 32 |" dm_addr_i [31:0] $end
$var wire 32 }" dm_wdata_i [31:0] $end
$var wire 1 7 dm_we_i $end
$var wire 32 ~" ex_raddr_i [31:0] $end
$var wire 1 > ex_re_i $end
$var wire 32 !# pc_raddr_i [31:0] $end
$var wire 1 4 pc_re_i $end
$var wire 1 ) rst $end
$var wire 32 "# waddr_i [31:0] $end
$var wire 32 ## wdata_i [31:0] $end
$var wire 1 = we_i $end
$var wire 1 0 we_o $end
$var wire 32 $# rdata_i [31:0] $end
$var reg 32 %# dm_rdata_o [31:0] $end
$var reg 32 &# ex_rdata_o [31:0] $end
$var reg 32 '# pc_rdata_o [31:0] $end
$upscope $end
$scope module u_timer $end
$var wire 1 ( clk $end
$var wire 32 (# raddr [31:0] $end
$var wire 1 ) rst $end
$var wire 32 )# waddr [31:0] $end
$var wire 32 *# wdata [31:0] $end
$var wire 1 0 we $end
$var wire 1 - int_sig $end
$var reg 32 +# rdata [31:0] $end
$var reg 32 ,# timer_count [31:0] $end
$var reg 32 -# timer_ctrl [31:0] $end
$var reg 32 .# timer_value [31:0] $end
$upscope $end
$upscope $end
$upscope $end
$enddefinitions $end
#0
$dumpvars
bx .#
bx -#
bx ,#
b0 +#
bx *#
bx )#
b0 (#
b0 '#
b0 &#
b0 %#
b0 $#
bx ##
bx "#
bx !#
b0 ~"
bx }"
bx |"
b0 {"
b0 z"
bx y"
bx x"
bx w"
bx v"
bx u"
bx t"
bx s"
bx r"
bx q"
xp"
bx o"
bx n"
bx m"
bx l"
b0x k"
xj"
b1010x0001100001 i"
bx h"
xg"
b11110001000000000101001101111 f"
bx e"
b11 d"
b110 c"
bx b"
bx a"
bx `"
bx _"
bx ^"
bx ]"
x\"
x["
bx Z"
bx Y"
bx X"
bx W"
bx V"
bx U"
bx T"
bx S"
bx R"
bx Q"
bx P"
bx O"
bx N"
b0 M"
bx L"
bz K"
xJ"
bx I"
bx H"
xG"
bx F"
b0 E"
bx D"
bx C"
bx B"
xA"
bz @"
bx ?"
bx >"
bx ="
b0 <"
bx ;"
bx :"
bx 9"
bx 8"
bx 7"
bx 6"
bx 5"
bx 4"
bx 3"
bx 2"
bx 1"
bx 0"
bx /"
bx ."
bx -"
b0 ,"
b0 +"
bx *"
bx )"
bx ("
bx '"
0&"
bx %"
0$"
bx #"
bx ""
bx !"
bx ~
bx }
bx |
b0 {
b0 z
b0 y
b0 x
b0 w
b0 v
b0 u
bx t
bx s
b0 r
b0 q
bx p
bx o
bx n
bx m
b0 l
bx k
bx j
b0 i
b0 h
bx g
bx f
bx e
bx d
bx c
bx b
bx a
bx `
bx _
b0 ^
b0 ]
x\
x[
bx Z
xY
xX
bx W
b0 V
b0 U
0T
bx S
0R
bx Q
0P
bx O
0N
bx M
bx L
xK
b0 J
bx I
bx H
bx G
bx F
xE
bx D
xC
bx B
xA
bx @
x?
x>
x=
bx <
bx ;
x:
bx 9
bx 8
x7
x6
bx 5
x4
b0 3
b0 2
b0 1
x0
b0 /
b0 .
x-
b0 ,
x+
bx *
0)
0(
x'
bx &
bx %
bx $
z#
z"
z!
$end
#10000
b0 k
b0 m
0-
b0 /"
b0 0"
b0 1"
b0 5"
b0 6"
b0 2"
b0 o
b0 n
b0 s
b0 ~
b0 !"
b0 t
b0 t"
b0 5
b0 ="
b0 u"
b0 !#
04
b0 <
b0 4"
b0 >"
b0 ;
b0 3"
b0 ?"
0E
0>
0A
0C
0=
0?
b0 F
b0 |
b0 8"
b11111111111111111111111111111111 d
b0 `
b0 a
b0 W
b0 f
b0 j
0X
b0 g
b0 -#
b0 .#
b0 ,#
1\
1[
b0 Z
1Y
1(
#20000
0(
#30000
1(
#40000
bx 3
bx E"
bx M"
bx %#
b1 1
b1 <"
b1 '#
0(
1)
#50000
b100000000000000001101111 3
b100000000000000001101111 E"
b100000000000000001101111 M"
b100000000000000001101111 %#
b101000001100001 i"
b0 k"
0g"
b100000000000000001101111 1
b100000000000000001101111 <"
b100000000000000001101111 '#
b0 n"
0G"
0p"
0\"
0["
b0 C"
b0 U"
b0 9
b0 F"
b0 S"
b0 |"
06
0+
0:
0J"
b0 h"
b0 I"
b0 W"
b0 e"
0A"
07
b0 b"
b1 2"
b100 t"
14
b1 ;
b1 3"
b1 ?"
b0 G
b0 }
b0 7"
x\
x[
b1 Z
0Y
1(
#60000
0(
#70000
0K
b1110000000000000001101111 1
b1110000000000000001101111 <"
b1110000000000000001101111 '#
b1 t
b1000 /"
b1101111 2"
b10 Z
1Y
1E
b1 F
b1 |
b1 8"
b100000000000000001101111 ;
b100000000000000001101111 3"
b100000000000000001101111 ?"
b1000 t"
b100 5
b100 ="
b100 u"
b100 !#
1(
#80000
0(
#90000
b100 L
b100 *"
b100 y"
b1000 O
b1000 ("
b1000 s"
1N
b10000000000000000000100010011 1
b10000000000000000000100010011 <"
b10000000000000000000100010011 '#
1K
b0 M
b0 )"
b0 x"
b11100 /"
b1000 o
b1000 n
b1101111 t
b1100 t"
b1000 5
b1000 ="
b1000 u"
b1000 !#
b100 <
b100 4"
b100 >"
b1110000000000000001101111 ;
b1110000000000000001101111 3"
b1110000000000000001101111 ?"
b0 @
b0 p
b0 ;"
1?
b100000000000000001101111 F
b100000000000000001101111 |
b100000000000000001101111 8"
b11 Z
0Y
1(
#100000
0(
#110000
0N
b0 O
b0 ("
b0 s"
0K
b0 o
b0 n
b1 t
b0 /"
b1 2"
b100 Z
1Y
b1 F
b1 |
b1 8"
0?
b0 <
b0 4"
b0 >"
b1 ;
b1 3"
b1 ?"
1(
#120000
0(
#130000
b110100010011 1
b110100010011 <"
b110100010011 '#
b10 1"
b1000 5"
b10011 2"
b10000 t"
b1100 5
b1100 ="
b1100 u"
b1100 !#
b1000 <
b1000 4"
b1000 >"
b10000000000000000000100010011 ;
b10000000000000000000100010011 3"
b10000000000000000000100010011 ?"
b101 Z
0Y
1(
#140000
0(
#150000
b100000000 L
b100000000 *"
b100000000 y"
1K
b10 M
b10 )"
b10 x"
b110110010011 1
b110110010011 <"
b110110010011 '#
b10 k
b100000000 n
b10 s
b1000 ~
b10011 t
b11010 1"
b0 5"
1Y
b0 D
b0 9"
b0 v"
1C
b10 @
b10 p
b10 ;"
1?
b1000 G
b1000 }
b1000 7"
b10000000000000000000100010011 F
b10000000000000000000100010011 |
b10000000000000000000100010011 8"
b1100 <
b1100 4"
b1100 >"
b110100010011 ;
b110100010011 3"
b110100010011 ?"
b10100 t"
b10000 5
b10000 ="
b10000 u"
b10000 !#
1(
#160000
0(
#170000
b101100000000000000011101111 1
b101100000000000000011101111 <"
b101100000000000000011101111 '#
b0 L
b0 *"
b0 y"
b11010 M
b11010 )"
b11010 x"
b11011 1"
b0 n
b11010 s
b0 ~
b11000 t"
b10100 5
b10100 ="
b10100 u"
b10100 !#
b10000 <
b10000 4"
b10000 >"
b110110010011 ;
b110110010011 3"
b110110010011 ?"
b11010 @
b11010 p
b11010 ;"
b1100 G
b1100 }
b1100 7"
b110100010011 F
b110100010011 |
b110100010011 8"
1(
#180000
0(
#190000
b11011 M
b11011 )"
b11011 x"
b100000000110100010011 1
b100000000110100010011 <"
b100000000110100010011 '#
b11 k
b11011 s
b11000 /"
b1 1"
b10 5"
b1101111 2"
b11011 @
b11011 p
b11011 ;"
b10000 G
b10000 }
b10000 7"
b110110010011 F
b110110010011 |
b110110010011 8"
b10100 <
b10100 4"
b10100 >"
b101100000000000000011101111 ;
b101100000000000000011101111 3"
b101100000000000000011101111 ?"
b0 $
b11100 t"
b11000 5
b11000 ="
b11000 u"
b11000 !#
1(
#200000
0(
#210000
b1101100 O
b1101100 ("
b1101100 s"
1N
b1101111 1
b1101111 <"
b1101111 '#
b11000 L
b11000 *"
b11000 y"
b1 M
b1 )"
b1 x"
b1 k
b1 /"
b11010 1"
b0 5"
b10011 2"
b11000 o
b1011000 n
b1 s
b10 ~
b1101111 t
b100000 t"
b11100 5
b11100 ="
b11100 u"
b11100 !#
b0 %
b11000 <
b11000 4"
b11000 >"
b100000000110100010011 ;
b100000000110100010011 3"
b100000000110100010011 ?"
b1 @
b1 p
b1 ;"
b10100 G
b10100 }
b10100 7"
b101100000000000000011101111 F
b101100000000000000011101111 |
b101100000000000000011101111 8"
1[
1(
#220000
0(
#230000
0N
b10100 O
b10100 ("
b10100 s"
0K
b11111110000000010000000100010011 1
b11111110000000010000000100010011 <"
b11111110000000010000000100010011 '#
b0 k
b0 o
b0 n
b0 s
b0 ~
b1 t
b0 /"
b0 1"
b1 2"
1\
b1 F
b1 |
b1 8"
0?
b0 <
b0 4"
b0 >"
b1 ;
b1 3"
b1 ?"
b1110000 t"
b1101100 5
b1101100 ="
b1101100 u"
b1101100 !#
1(
#240000
0(
#250000
b100010010111000100011 1
b100010010111000100011 <"
b100010010111000100011 '#
b10 0"
b10 1"
b1111111 5"
b10011 2"
b1110100 t"
b1110000 5
b1110000 ="
b1110000 u"
b1110000 !#
b1101100 <
b1101100 4"
b1101100 >"
b11111110000000010000000100010011 ;
b11111110000000010000000100010011 3"
b11111110000000010000000100010011 ?"
b0 G
b0 }
b0 7"
1(
#260000
0(
#270000
b100000000 v
b11100000 L
b11100000 *"
b11100000 y"
b100000000 V
b100000000 ^
b100000000 h
b100000000 /
b100000000 r
b100000000 z"
1K
b10 M
b10 )"
b10 x"
b100000010010110000100011 1
b100000010010110000100011 <"
b100000010010110000100011 '#
b10 k
b11111111111111111111111111100000 n
b10 s
b1111111 ~
b10011 t
b1 /"
b11100 1"
b0 5"
b10 6"
b100011 2"
b10 D
b10 9"
b10 v"
b10 @
b10 p
b10 ;"
1?
b1101100 G
b1101100 }
b1101100 7"
b11111110000000010000000100010011 F
b11111110000000010000000100010011 |
b11111110000000010000000100010011 8"
b1110000 <
b1110000 4"
b1110000 >"
b100010010111000100011 ;
b100010010111000100011 3"
b100010010111000100011 ?"
b1111000 t"
b1110100 5
b1110100 ="
b1110100 u"
b1110100 !#
1(
#280000
0(
#290000
b1111111111111111111111111111111111111111111111111110101100000000 y
00
b11100000 v
b1111111111111111111111111111111111111111111111111110101100000000 w
b1010100000000 z
b11000 u
b11000 H
b11000 ."
b11000 ##
b11000 *#
b11111100 I
b11111100 -"
b11111100 "#
b11111100 )#
b10000000010000010000010011 1
b10000000010000010000010011 <"
b10000000010000010000010011 '#
b11100000 V
b11100000 ^
b11100000 h
b11100000 /
b11100000 r
b11100000 z"
b1010100000000 x
b1010100000000 {
b11000 U
b11000 ]
b11000 i
b11000 .
b11000 q
b11000 {"
b100000001 L
b100000001 *"
b100000001 y"
0K
b0 k
b1 m
b1000 /"
b11000 1"
b1 o
b1 n
b11100 s
b0 ~
b10 !"
b100011 t
b1111100 t"
b1111000 5
b1111000 ="
b1111000 u"
b1111000 !#
b1110100 <
b1110100 4"
b1110100 >"
b100000010010110000100011 ;
b100000010010110000100011 3"
b100000010010110000100011 ?"
0?
1=
b1 B
b1 :"
b1 w"
1A
b1110000 G
b1110000 }
b1110000 7"
b100010010111000100011 F
b100010010111000100011 |
b100010010111000100011 8"
1(
#300000
0(
#310000
bx H
bx ."
bx ##
bx *#
bx y
bx w
bx z
bx u
bx x
bx {
bx U
bx ]
bx i
bx .
bx q
bx {"
b11111000 I
b11111000 -"
b11111000 "#
b11111000 )#
b11111110000001000010010000100011 1
b11111110000001000010010000100011 <"
b11111110000001000010010000100011 '#
b0 m
b1000 o
b1000 n
b11000 s
b0 /"
b1000 1"
b1 5"
b0 6"
b10011 2"
b1000 B
b1000 :"
b1000 w"
b1110100 G
b1110100 }
b1110100 7"
b100000010010110000100011 F
b100000010010110000100011 |
b100000010010110000100011 8"
b1111000 <
b1111000 4"
b1111000 >"
b10000000010000010000010011 ;
b10000000010000010000010011 3"
b10000000010000010000010011 ?"
b10000000 t"
b1111100 5
b1111100 ="
b1111100 u"
b1111100 !#
1(
#320000
0(
#330000
b100000000 L
b100000000 *"
b100000000 y"
b11111110000001000010011000100011 1
b11111110000001000010011000100011 <"
b11111110000001000010011000100011 '#
b100001000 I
b100001000 -"
b100001000 "#
b100001000 )#
1K
b1000 M
b1000 )"
b1000 x"
b1000 0"
b1111111 5"
b10 6"
b100011 2"
b0 o
b100000 n
b1000 s
b1 ~
b0 !"
b10011 t
b10000100 t"
b10000000 5
b10000000 ="
b10000000 u"
b10000000 !#
b1111100 <
b1111100 4"
b1111100 >"
b11111110000001000010010000100011 ;
b11111110000001000010010000100011 3"
b11111110000001000010010000100011 ?"
0=
b1000 @
b1000 p
b1000 ;"
1?
b1111000 G
b1111000 }
b1111000 7"
b10000000010000010000010011 F
b10000000010000010000010011 |
b10000000010000010000010011 8"
1(
#340000
0(
#350000
b0 H
b0 ."
b0 ##
b0 *#
b0 y
b0 w
b0 z
b0 u
b100000000 v
b11101000 I
b11101000 -"
b11101000 "#
b11101000 )#
b11000000 L
b11000000 *"
b11000000 y"
0K
b0 x
b0 {
b0 U
b0 ]
b0 i
b0 .
b0 q
b0 {"
b100000000 V
b100000000 ^
b100000000 h
b100000000 /
b100000000 r
b100000000 z"
b10000000000000000001101111 1
b10000000000000000001101111 <"
b10000000000000000001101111 '#
b11111111111111111111111111100000 n
b1111111 ~
b10 !"
b100011 t
b1100 1"
0?
1=
b0 B
b0 :"
b0 w"
b1000 D
b1000 9"
b1000 v"
b1111100 G
b1111100 }
b1111100 7"
b11111110000001000010010000100011 F
b11111110000001000010010000100011 |
b11111110000001000010010000100011 8"
b10000000 <
b10000000 4"
b10000000 >"
b11111110000001000010011000100011 ;
b11111110000001000010011000100011 3"
b11111110000001000010011000100011 ?"
b10001000 t"
b10000100 5
b10000100 ="
b10000100 u"
b10000100 !#
1(
#360000
0(
#370000
b11111110100001000010011100000011 1
b11111110100001000010011100000011 <"
b11111110100001000010011100000011 '#
b11101100 I
b11101100 -"
b11101100 "#
b11101100 )#
b0 0"
b0 1"
b1 5"
b0 6"
b1101111 2"
b1100 s
b10001100 t"
b10001000 5
b10001000 ="
b10001000 u"
b10001000 !#
b10000100 <
b10000100 4"
b10000100 >"
b10000000000000000001101111 ;
b10000000000000000001101111 3"
b10000000000000000001101111 ?"
b10000000 G
b10000000 }
b10000000 7"
b11111110000001000010011000100011 F
b11111110000001000010011000100011 |
b11111110000001000010011000100011 8"
1(
#380000
0(
#390000
b10001000 L
b10001000 *"
b10001000 y"
b10100100 O
b10100100 ("
b10100100 s"
1N
b100100000 I
b100100000 -"
b100100000 "#
b100100000 )#
1K
b0 M
b0 )"
b0 x"
b11111110110001000010011110000011 1
b11111110110001000010011110000011 <"
b11111110110001000010011110000011 '#
b100000 n
b0 s
b1 ~
b0 !"
b1101111 t
b1000 /"
b1000 0"
b1110 1"
b1111111 5"
b10 6"
b11 2"
b0 @
b0 p
b0 ;"
1?
0=
b10000100 G
b10000100 }
b10000100 7"
b10000000000000000001101111 F
b10000000000000000001101111 |
b10000000000000000001101111 8"
b10001000 <
b10001000 4"
b10001000 >"
b11111110100001000010011100000011 ;
b11111110100001000010011100000011 3"
b11111110100001000010011100000011 ?"
b10010000 t"
b10001100 5
b10001100 ="
b10001100 u"
b10001100 !#
1(
#400000
0(
#410000
0N
b11111110110001000010011100000011 1
b11111110110001000010011100000011 <"
b11111110110001000010011100000011 '#
b10000100 O
b10000100 ("
b10000100 s"
0K
b0 /"
b0 0"
b0 1"
b0 5"
b0 6"
b1 2"
b0 n
b0 ~
b1 t
b10101000 t"
b10100100 5
b10100100 ="
b10100100 u"
b10100100 !#
b0 <
b0 4"
b0 >"
b1 ;
b1 3"
b1 ?"
b1 F
b1 |
b1 8"
0?
1(
#420000
0(
#430000
b110010000000000011110010011 1
b110010000000000011110010011 <"
b110010000000000011110010011 '#
b1100 /"
b1000 0"
b1110 1"
b1111111 5"
b10 6"
b11 2"
b0 G
b0 }
b0 7"
b10100100 <
b10100100 4"
b10100100 >"
b11111110110001000010011100000011 ;
b11111110110001000010011100000011 3"
b11111110110001000010011100000011 ?"
b10101100 t"
b10101000 5
b10101000 ="
b10101000 u"
b10101000 !#
1(
#440000
0(
#450000
b0 L
b0 *"
b0 y"
b11101100 J
b11101100 ,"
b11101100 ~"
b11101100 (#
b11111100111001111101111011100011 1
b11111100111001111101111011100011 <"
b11111100111001111101111011100011 '#
b0 2
b0 l
b0 &#
1K
b1110 M
b1110 )"
b1110 x"
b10 k
b100 /"
b0 0"
b1111 1"
b11 5"
b0 6"
b10011 2"
b1100 o
b11111111111111111111111111101100 n
b1110 s
b1111111 ~
b10 !"
b11 t
b10110000 t"
b10101100 5
b10101100 ="
b10101100 u"
b10101100 !#
b10101000 <
b10101000 4"
b10101000 >"
b110010000000000011110010011 ;
b110010000000000011110010011 3"
b110010000000000011110010011 ?"
1>
b1110 @
b1110 p
b1110 ;"
1?
b10100100 G
b10100100 }
b10100100 7"
b11111110110001000010011100000011 F
b11111110110001000010011100000011 |
b11111110110001000010011100000011 8"
1(
#460000
0(
#470000
bx 2
bx l
bx &#
b0 v
b1100100 L
b1100100 *"
b1100100 y"
b101100100 J
b101100100 ,"
b101100100 ~"
b101100100 (#
b1111 M
b1111 )"
b1111 x"
b0 V
b0 ^
b0 h
b0 /
b0 r
b0 z"
b11111110100001000010011100000011 1
b11111110100001000010011100000011 <"
b11111110100001000010011100000011 '#
b11 k
b100 o
b1100100 n
b1111 s
b11 ~
b0 !"
b10011 t
b1110 /"
b1111 0"
b11101 1"
b1111110 5"
b101 6"
b1100011 2"
b0 D
b0 9"
b0 v"
b1111 @
b1111 p
b1111 ;"
b10101000 G
b10101000 }
b10101000 7"
b110010000000000011110010011 F
b110010000000000011110010011 |
b110010000000000011110010011 8"
b10101100 <
b10101100 4"
b10101100 >"
b11111100111001111101111011100011 ;
b11111100111001111101111011100011 3"
b11111100111001111101111011100011 ?"
b10110100 t"
b10110000 5
b10110000 ="
b10110000 u"
b10110000 !#
1(
#480000
0(
